<svg width="61.2" height="30" version="1.1" viewBox="0 0 61.2 30" xmlns="http://www.w3.org/2000/svg">
  <g>
    <path d="m0 20 10.2-20 10.2 20 10.2-20 10.2 20 10.2-20 10.2 20v10h-61.2z" style="fill:#363636"/>
  </g>
</svg>
