<svg preserveAspectRatio="none" version="1.1" viewBox="0 0 480 480" xmlns="http://www.w3.org/2000/svg">
  <g>
    <path d="m530 30-250 40 140 80-220 90 220 240h110z" fill-opacity="1" style="fill:#000000"/>
    <path d="m140 30 280-30h-370v480h330l-380-230 300-130z" fill-opacity="1" style="fill:#000000"/>
  </g>
</svg>
